Chapter 3 Interval Estimation | Stat 255: Statistics for Data Science Notes
…
Look at the distribution of the statistic across bootstrap samples. The variability in this bootstrap distribution can be used to approximate the variability in the sampling distribution for the statistic of interest.

3.2.3 Bootstrap Samples of Lakes

The sample_n() function samples the specified number rows from a data frame, with or without replacement.

The lakes in the first sample are shown below. Notice that some lakes occur multiple times, and others not at all.

Bootstrap Sample 1

BootstrapSample1 <- sample_n(FloridaLakes, 53, replace=TRUE) %>% arrange(Lake)
BootstrapSample1 %>% select(ID, Lake, Mercury)

## # A tibble: 53 × 3
##       ID Lake         Mercury
##    <int> <chr>          <dbl>
##  1     2 Annie           1.33
##  2     3 Apopka          0.04
##  3     4 Blue Cypress    0.44
##  4     6 Bryant          0.27
##  5     9 Deer Point      0.83
##  6     9 Deer Point      0.83
##  7    10 Dias            0.81
##  8    11 Dorr            0.71
##  9    12 Down            0.5 
## 10    12 Down            0.5 
## # ℹ 43 more rows

We calculate the proportion of lakes with mercury levels exceeding 1 ppm in this bootstrap sample. Note that if a lake shows up more than once in the bootstrap sample, then it is counted however many times it shows up.

sum(BootstrapSample1$Mercury > 1) / 53

## [1] 0.0754717

*Bootstrap Sample #2

We take a second bootstrap sample. Notice that the lakes chosen and omitted differ from the first sample.

BootstrapSample2 <- sample_n(FloridaLakes, 53, replace=TRUE) %>% arrange(Lake)
BootstrapSample2 %>% select(ID, Lake, Mercury)

## # A tibble: 53 × 3
##       ID Lake         Mercury
##    <int> <chr>          <dbl>
##  1     1 Alligator       1.23
##  2     3 Apopka          0.04
##  3     4 Blue Cypress    0.44
##  4     4 Blue Cypress    0.44
##  5     5 Brick           1.2 
##  6     7 Cherry          0.48
##  7     8 Crescent        0.19
##  8     8 Crescent        0.19
##  9     8 Crescent        0.19
## 10     8 Crescent        0.19
## # ℹ 43 more rows

Proportion exceeding 1 ppm:

sum(BootstrapSample2$Mercury > 1) / 53

## [1] 0.0754717

Bootstrap Sample #3

We’ll take one more bootstrap sample and calculate the proportion of lakes with mercury levels exceeding 1 ppm.

BootstrapSample3 <- sample_n(FloridaLakes, 53, replace=TRUE) %>% arrange(Lake)
BootstrapSample3 %>% select(ID, Lake, Mercury)

## # A tibble: 53 × 3
##       ID Lake       Mercury
##    <int> <chr>        <dbl>
##  1     5 Brick         1.2 
##  2     5 Brick         1.2 
##  3     6 Bryant        0.27
##  4     6 Bryant        0.27
##  5     7 Cherry        0.48
##  6     8 Crescent      0.19
##  7     8 Crescent      0.19
##  8     9 Deer Point    0.83
##  9     9 Deer Point    0.83
## 10    10 Dias          0.81
## # ℹ 43 more rows
…
Calculate the mean mercury level in the bootstrap sample.

Repeat steps 1 and 2 many (say 10,000) times, keeping track of the mean mercury level in each bootstrap sample.

Look at the distribution of the mean across bootstrap samples. The variability in this bootstrap distribution can be used to approximate the variability in the sampling distribution for the mean mercury level.

We’ll illustrate the procedure on 3 bootstrap samples.

Bootstrap Sample 1

BootstrapSample1 <- sample_n(FloridaLakes, 53, replace=TRUE) %>% arrange(Lake)
BootstrapSample1 %>% select(ID, Lake, Mercury)

## # A tibble: 53 × 3
##       ID Lake              Mercury
##    <int> <chr>               <dbl>
##  1     2 Annie                1.33
##  2     2 Annie                1.33
##  3     3 Apopka               0.04
##  4     4 Blue Cypress         0.44
##  5     5 Brick                1.2 
##  6    12 Down                 0.5 
##  7    14 East Tohopekaliga    1.16
##  8    13 Eaton                0.49
##  9    16 George               0.15
## 10    16 George               0.15
## # ℹ 43 more rows

We calculate the mean mercury level among the lakes in the bootstrap sample.

mean(BootstrapSample1$Mercury)

## [1] 0.5292453

Bootstrap Sample #2

BootstrapSample2 <- sample_n(FloridaLakes, 53, replace=TRUE) %>% arrange(Lake)
BootstrapSample2 %>% select(ID, Lake, Mercury)

## # A tibble: 53 × 3
##       ID Lake       Mercury
##    <int> <chr>        <dbl>
##  1     1 Alligator     1.23
##  2     1 Alligator     1.23
##  3     1 Alligator     1.23
##  4     2 Annie         1.33
##  5     3 Apopka        0.04
##  6     3 Apopka        0.04
##  7     3 Apopka        0.04
##  8     9 Deer Point    0.83
##  9    12 Down          0.5 
## 10    12 Down          0.5 
## # ℹ 43 more rows

Mean Mercury Level:

mean(BootstrapSample2$Mercury)

## [1] 0.4777358

Bootstrap Sample #3

BootstrapSample3 <- sample_n(FloridaLakes, 53, replace=TRUE) %>% arrange(Lake)
BootstrapSample3 %>% select(ID, Lake, Mercury)

## # A tibble: 53 × 3
##       ID Lake      Mercury
##    <int> <chr>       <dbl>
##  1     1 Alligator    1.23
##  2     3 Apopka       0.04
##  3     6 Bryant       0.27
##  4     7 Cherry       0.48
##  5     8 Crescent     0.19
##  6    10 Dias         0.81
##  7    10 Dias         0.81
##  8    11 Dorr         0.71
##  9    12 Down         0.5 
## 10    12 Down         0.5 
## # ℹ 43 more rows
…
Calculate the standard deviation in mercury level in the bootstrap sample.

Repeat steps 1 and 2 many (say 10,000) times, keeping track of the standard deviation mercury level in each bootstrap sample.

Look at the distribution of the standard deviations across bootstrap samples. The variability in this bootstrap distribution can be used to approximate the variability in the sampling distribution for the standard deviation in mercury level.

We’ll illustrate the procedure on 3 bootstrap samples.

Bootstrap Sample 1

BootstrapSample1 <- sample_n(FloridaLakes, 53, replace=TRUE) %>% arrange(Lake)
BootstrapSample1 %>% select(ID, Lake, Mercury)

## # A tibble: 53 × 3
##       ID Lake         Mercury
##    <int> <chr>          <dbl>
##  1     3 Apopka          0.04
##  2     3 Apopka          0.04
##  3     4 Blue Cypress    0.44
##  4     9 Deer Point      0.83
##  5    10 Dias            0.81
##  6    10 Dias            0.81
##  7    10 Dias            0.81
##  8    11 Dorr            0.71
##  9    12 Down            0.5 
## 10    12 Down            0.5 
## # ℹ 43 more rows

We calculate the standard deviation in mercury levels among the lakes in the bootstrap sample.

sd(BootstrapSample1$Mercury)

## [1] 0.2790135

Bootstrap Sample #2

BootstrapSample2 <- sample_n(FloridaLakes, 53, replace=TRUE) %>% arrange(Lake)
BootstrapSample2 %>% select(ID, Lake, Mercury)

## # A tibble: 53 × 3
##       ID Lake       Mercury
##    <int> <chr>        <dbl>
##  1     1 Alligator     1.23
##  2     1 Alligator     1.23
##  3     1 Alligator     1.23
##  4     1 Alligator     1.23
##  5     2 Annie         1.33
##  6     2 Annie         1.33
##  7     2 Annie         1.33
##  8     6 Bryant        0.27
##  9     7 Cherry        0.48
## 10     9 Deer Point    0.83
## # ℹ 43 more rows

Standard Deviation in Mercury Level:

sd(BootstrapSample2$Mercury)

## [1] 0.3788695

Bootstrap Sample #3

BootstrapSample3 <- sample_n(FloridaLakes, 53, replace=TRUE) %>% arrange(Lake)
BootstrapSample3 %>% select(ID, Lake, Mercury)

## # A tibble: 53 × 3
##       ID Lake      Mercury
##    <int> <chr>       <dbl>
##  1     1 Alligator    1.23
##  2     2 Annie        1.33
##  3     2 Annie        1.33
##  4     2 Annie        1.33
##  5     3 Apopka       0.04
##  6     5 Brick        1.2 
##  7     5 Brick        1.2 
##  8     7 Cherry       0.48
##  9     7 Cherry       0.48
## 10     8 Crescent     0.19
## # ℹ 43 more rows
…
Calculate the median price in the bootstrap sample.

Repeat steps 1 and 2 many (say 10,000) times, keeping track of the median price in each bootstrap sample.

Look at the distribution of the median price across bootstrap samples. The variability in this bootstrap distribution can be used to approximate the variability in the sampling distribution for the median price.

We’ll illustrate the procedure on 3 bootstrap samples.

Bootstrap Sample 1

BootstrapSample1 <- sample_n(Houses, 100, replace=TRUE) %>% arrange(Id)
BootstrapSample1 %>% select(Id, price)

## # A tibble: 100 × 2
##       Id price
##    <int> <dbl>
##  1     2  885.
##  2     4  253.
##  3     4  253.
##  4     7  550.
##  5     8  485.
##  6    11  410 
##  7    12  571 
##  8    12  571 
##  9    13 1325 
## 10    14  696 
## # ℹ 90 more rows

We calculate the median price among the houses in the bootstrap sample.

median(BootstrapSample1$price)

## [1] 543.5

Bootstrap Sample #2

BootstrapSample2 <- sample_n(Houses, 100, replace=TRUE) %>% arrange(Id)
BootstrapSample2 %>% select(Id, price)

## # A tibble: 100 × 2
##       Id price
##    <int> <dbl>
##  1     6  310.
##  2     7  550.
##  3     7  550.
##  4     9  315.
##  5    10  425 
##  6    12  571 
##  7    13 1325 
##  8    15  605.
##  9    16 3075 
## 10    17  438 
## # ℹ 90 more rows

Median Price:

median(BootstrapSample2$price)

## [1] 484

Bootstrap Sample #3

BootstrapSample3 <- sample_n(Houses, 100, replace=TRUE) %>% arrange(Id)
BootstrapSample3 %>% select(Id, price)

## # A tibble: 100 × 2
##       Id price
##    <int> <dbl>
##  1     1 1225 
##  2     2  885.
##  3     3  385.
##  4     4  253.
##  5     6  310.
##  6     6  310.
##  7     7  550.
##  8     7  550.
##  9     8  485.
## 10     9  315.
## # ℹ 90 more rows
…
Repeat steps 1 and 2 many (say 10,000) times, keeping track of the difference in means in each bootstrap sample.

Look at the distribution of the differences in means across bootstrap samples. The variability in this bootstrap distribution can be used to approximate the variability in the sampling distribution for the difference in means between mercury levels in Northern and Southern Florida.

We’ll illustrate the procedure on 3 bootstrap samples.

Bootstrap Sample 1

NLakes <- sample_n(FloridaLakes %>% filter(Location=="N"), 33, replace=TRUE)   ## sample 33 northern lakes
SLakes <- sample_n(FloridaLakes %>% filter(Location=="S"), 20, replace=TRUE)   ## sample 20 southern lakes
BootstrapSample1 <- rbind(NLakes, SLakes) %>% arrange(ID) %>% 
  select(ID, Lake, Location, Mercury)   ## combine Northern and Southern Lakes
BootstrapSample1

## # A tibble: 53 × 4
##       ID Lake         Location Mercury
##    <int> <chr>        <fct>      <dbl>
##  1     2 Annie        S           1.33
##  2     4 Blue Cypress S           0.44
##  3     4 Blue Cypress S           0.44
##  4     4 Blue Cypress S           0.44
##  5     5 Brick        S           1.2 
##  6     5 Brick        S           1.2 
##  7     6 Bryant       N           0.27
##  8     6 Bryant       N           0.27
##  9     7 Cherry       N           0.48
## 10    10 Dias         N           0.81
## # ℹ 43 more rows
…
## 
## Call:
## lm(formula = Mercury ~ Location, data = BootstrapSample1)
## 
## Coefficients:
## (Intercept)    LocationS  
##      0.4376       0.2889

NLakes <- sample_n(FloridaLakes %>% filter(Location=="N"), 33, replace=TRUE)   ## sample 33 northern lakes
SLakes <- sample_n(FloridaLakes %>% filter(Location=="S"), 20, replace=TRUE)   ## sample 20 southern lakes
BootstrapSample2 <- rbind(NLakes, SLakes) %>% arrange(ID) %>% 
  select(ID, Lake, Location, Mercury)   ## combine Northern and Southern Lakes
BootstrapSample2

## # A tibble: 53 × 4
##       ID Lake         Location Mercury
##    <int> <chr>        <fct>      <dbl>
##  1     1 Alligator    S           1.23
##  2     4 Blue Cypress S           0.44
##  3     6 Bryant       N           0.27
##  4     7 Cherry       N           0.48
##  5     8 Crescent     N           0.19
##  6     8 Crescent     N           0.19
##  7     8 Crescent     N           0.19
##  8     9 Deer Point   N           0.83
##  9     9 Deer Point   N           0.83
## 10    10 Dias         N           0.81
## # ℹ 43 more rows
…
Bootstrap Sample 3

NLakes <- sample_n(FloridaLakes %>% filter(Location=="N"), 33, replace=TRUE)   ## sample 33 northern lakes
SLakes <- sample_n(FloridaLakes %>% filter(Location=="S"), 20, replace=TRUE)   ## sample 20 southern lakes
BootstrapSample3 <- rbind(NLakes, SLakes) %>% arrange(ID) %>% 
  select(ID, Lake, Location, Mercury)   ## combine Northern and Southern Lakes
BootstrapSample3

## # A tibble: 53 × 4
##       ID Lake         Location Mercury
##    <int> <chr>        <fct>      <dbl>
##  1     1 Alligator    S           1.23
##  2     2 Annie        S           1.33
##  3     4 Blue Cypress S           0.44
##  4     5 Brick        S           1.2 
##  5     6 Bryant       N           0.27
##  6     7 Cherry       N           0.48
##  7     9 Deer Point   N           0.83
##  8     9 Deer Point   N           0.83
##  9    11 Dorr         N           0.71
## 10    11 Dorr         N           0.71
## # ℹ 43 more rows
…
Fit a regression model with pH as the explanatory variable and record the value of slope \(b_1\).

Repeat steps 1 and 2 many (say 10,000) times, keeping track of slope of the regression line for each bootstrap sample.

Look at the distribution of the slopes across bootstrap samples. The variability in this bootstrap distribution can be used to approximate the variability in the sampling distribution for the slope relating mercury and pH levels.

We’ll illustrate the procedure on 3 bootstrap samples.

Bootstrap Sample 1

BootstrapSample1 <- sample_n(FloridaLakes , 53, replace=TRUE)  %>% arrange(ID) %>% 
  select(ID, Lake, pH, Mercury)   ## combine Northern and Southern Lakes
BootstrapSample1

## # A tibble: 53 × 4
##       ID Lake            pH Mercury
##    <int> <chr>        <dbl>   <dbl>
##  1     2 Annie          5.1    1.33
##  2     2 Annie          5.1    1.33
##  3     3 Apopka         9.1    0.04
##  4     4 Blue Cypress   6.9    0.44
##  5     4 Blue Cypress   6.9    0.44
##  6     6 Bryant         7.3    0.27
##  7     6 Bryant         7.3    0.27
##  8     7 Cherry         5.4    0.48
##  9     8 Crescent       8.1    0.19
## 10    10 Dias           6.4    0.81
## # ℹ 43 more rows
…
## 
## Call:
## lm(formula = Mercury ~ pH, data = BootstrapSample1)
## 
## Coefficients:
## (Intercept)           pH  
##      1.2681      -0.1098

Bootstrap Sample 2

BootstrapSample2 <- sample_n(FloridaLakes , 53, replace=TRUE)  %>% arrange(ID) %>% 
  select(ID, Lake, pH, Mercury)
BootstrapSample2

## # A tibble: 53 × 4
##       ID Lake          pH Mercury
##    <int> <chr>      <dbl>   <dbl>
##  1     1 Alligator    6.1    1.23
##  2     1 Alligator    6.1    1.23
##  3     2 Annie        5.1    1.33
##  4     2 Annie        5.1    1.33
##  5     3 Apopka       9.1    0.04
##  6     6 Bryant       7.3    0.27
##  7     7 Cherry       5.4    0.48
##  8     9 Deer Point   5.8    0.83
##  9    12 Down         7.2    0.5 
## 10    13 Eaton        7.2    0.49
## # ℹ 43 more rows
…
## 
## Call:
## lm(formula = Mercury ~ pH, data = BootstrapSample2)
## 
## Coefficients:
## (Intercept)           pH  
##      1.4872      -0.1394

Bootstrap Sample 3

BootstrapSample3 <- sample_n(FloridaLakes , 53, replace=TRUE)  %>% arrange(ID) %>% 
  select(ID, Lake, pH, Mercury)
BootstrapSample3

## # A tibble: 53 × 4
##       ID Lake            pH Mercury
##    <int> <chr>        <dbl>   <dbl>
##  1     2 Annie          5.1    1.33
##  2     2 Annie          5.1    1.33
##  3     2 Annie          5.1    1.33
##  4     3 Apopka         9.1    0.04
##  5     4 Blue Cypress   6.9    0.44
##  6     4 Blue Cypress   6.9    0.44
##  7     6 Bryant         7.3    0.27
##  8     8 Crescent       8.1    0.19
##  9     8 Crescent       8.1    0.19
## 10    10 Dias           6.4    0.81
## # ℹ 43 more rows
…
Fit a regression model with location as the explanatory variable and record the values of \(b_0\) and \(b_1\). Use these to calculate \(b_0+7b_1\).

Repeat steps 1 and 2 many (say 10,000) times, keeping track of \(b_0\) and \(b_1\), and calculating \(b_0+7b_1\) in each bootstrap sample.

Look at the distribution of the expected response, \(b_0 + 7b_1\), across bootstrap samples. The variability in this bootstrap distribution can be used to approximate the variability in the sampling distribution for the expected mercury level among all lakes with pH level of 7.

We’ll illustrate the procedure on 3 bootstrap samples.

Bootstrap Sample 1

BootstrapSample1 <- sample_n(FloridaLakes , 53, replace=TRUE)  %>% arrange(ID) %>% 
  select(ID, Lake, pH, Mercury)   ## combine Northern and Southern Lakes
BootstrapSample1

## # A tibble: 53 × 4
##       ID Lake            pH Mercury
##    <int> <chr>        <dbl>   <dbl>
##  1     2 Annie          5.1    1.33
##  2     4 Blue Cypress   6.9    0.44
##  3     6 Bryant         7.3    0.27
##  4     7 Cherry         5.4    0.48
##  5     9 Deer Point     5.8    0.83
##  6    10 Dias           6.4    0.81
##  7    10 Dias           6.4    0.81
##  8    10 Dias           6.4    0.81
##  9    10 Dias           6.4    0.81
## 10    11 Dorr           5.4    0.71
## # ℹ 43 more rows
…
Mb1 <- lm(data=BootstrapSample1, Mercury ~ pH) ## fit linear model
b0 <- Mb1$coefficients[1] # record value of b0 (first coefficient)
b1 <- Mb1$coefficients[2] # record value of b1 (second coefficient)
b0+7*b1 #calculate b0+7*b1

## (Intercept) 
##   0.4755848

Bootstrap Sample 2

BootstrapSample2 <- sample_n(FloridaLakes , 53, replace=TRUE)  %>% arrange(ID) %>% 
  select(ID, Lake, pH, Mercury)
BootstrapSample2

## # A tibble: 53 × 4
##       ID Lake                 pH Mercury
##    <int> <chr>             <dbl>   <dbl>
##  1     1 Alligator           6.1    1.23
##  2     1 Alligator           6.1    1.23
##  3     3 Apopka              9.1    0.04
##  4     4 Blue Cypress        6.9    0.44
##  5    12 Down                7.2    0.5 
##  6    14 East Tohopekaliga   5.8    1.16
##  7    16 George              8.2    0.15
##  8    17 Griffin             8.7    0.19
##  9    17 Griffin             8.7    0.19
## 10    17 Griffin             8.7    0.19
## # ℹ 43 more rows
Mb2 <- lm(data=BootstrapSample2, Mercury ~ pH) ## fit linear model
b0 <- Mb2$coefficients[1] # record value of b0 (first coefficient)
b1 <- Mb2$coefficients[2] # record value of b1 (second coefficient)
b0+7*b1 #calculate b0+7*b1

## (Intercept) 
##   0.4327569

Bootstrap Sample 3

BootstrapSample3 <- sample_n(FloridaLakes , 53, replace=TRUE)  %>% arrange(ID) %>% 
  select(ID, Lake, pH, Mercury)
BootstrapSample3

## # A tibble: 53 × 4
##       ID Lake            pH Mercury
##    <int> <chr>        <dbl>   <dbl>
##  1     1 Alligator      6.1    1.23
##  2     2 Annie          5.1    1.33
##  3     2 Annie          5.1    1.33
##  4     4 Blue Cypress   6.9    0.44
##  5     6 Bryant         7.3    0.27
##  6     7 Cherry         5.4    0.48
##  7     8 Crescent       8.1    0.19
##  8     9 Deer Point     5.8    0.83
##  9    11 Dorr           5.4    0.71
## 10    11 Dorr           5.4    0.71
## # ℹ 43 more rows
…
